EMD proj 01 raport
…
## Warning: 52582 parsing failures.
## row    col               expected actual               file
##   1 totaln no trailing characters  .8474 'data/sledzie.csv'
##   2 totaln no trailing characters  .8474 'data/sledzie.csv'
##   3 totaln no trailing characters  .8474 'data/sledzie.csv'
##   4 totaln no trailing characters  .8474 'data/sledzie.csv'
##   5 totaln no trailing characters  .8474 'data/sledzie.csv'
## ... ...... ...................... ...... ..................
## See problems(...) for more details.

Atrybut totaln wbrew oczekiwaniom jest wartoci zmienno-przecinkow co wskazuje na to, e jest okrelony jako rednia liczba ledzi zowionych w ramach poowu.

problems(data)

## # A tibble: 52,582 x 5
##      row col    expected               actual file              
##    <int> <chr>  <chr>                  <chr>  <chr>             
##  1     1 totaln no trailing characters .8474  'data/sledzie.csv'
##  2     2 totaln no trailing characters .8474  'data/sledzie.csv'
##  3     3 totaln no trailing characters .8474  'data/sledzie.csv'
##  4     4 totaln no trailing characters .8474  'data/sledzie.csv'
##  5     5 totaln no trailing characters .8474  'data/sledzie.csv'
##  6     6 totaln no trailing characters .8474  'data/sledzie.csv'
##  7     7 totaln no trailing characters .8474  'data/sledzie.csv'
##  8     8 totaln no trailing characters .8474  'data/sledzie.csv'
##  9     9 totaln no trailing characters .8474  'data/sledzie.csv'
## 10    10 totaln no trailing characters .8474  'data/sledzie.csv'
## #  with 52,572 more rows
…
data_path <- "data/"
data <- read_csv(paste(data_path, "sledzie.csv", sep=""), na = "?", col_types = cols(recr=col_integer(), xmonth = col_integer()))

## Warning: Missing column names filled in: 'X1' [1]

Wstpne przetwarzanie

Zmiana nazwy pierwszej kolumny

data <- data %>% rename(lp = X1)

data

## # A tibble: 52,582 x 16
##       lp length  cfin1 cfin2 chel1 chel2 lcop1 lcop2  fbar   recr  cumf totaln
##    <dbl>  <dbl>  <dbl> <dbl> <dbl> <dbl> <dbl> <dbl> <dbl>  <int> <dbl>  <dbl>
##  1     0   23   0.0278 0.278  2.47  NA    2.55  26.4 0.356 482831 0.306 2.67e5
##  2     1   22.5 0.0278 0.278  2.47  21.4  2.55  26.4 0.356 482831 0.306 2.67e5
##  3     2   25   0.0278 0.278  2.47  21.4  2.55  26.4 0.356 482831 0.306 2.67e5
##  4     3   25.5 0.0278 0.278  2.47  21.4  2.55  26.4 0.356 482831 0.306 2.67e5
##  5     4   24   0.0278 0.278  2.47  21.4  2.55  26.4 0.356 482831 0.306 2.67e5
##  6     5   22   0.0278 0.278  2.47  21.4  2.55  NA   0.356 482831 0.306 2.67e5
##  7     6   24   0.0278 0.278  2.47  21.4  2.55  26.4 0.356 482831 0.306 2.67e5
##  8     7   23.5 0.0278 0.278  2.47  21.4  2.55  26.4 0.356 482831 0.306 2.67e5
##  9     8   22.5 0.0278 0.278  2.47  21.4  2.55  26.4 0.356 482831 0.306 2.67e5
## 10     9   22.5 0.0278 0.278  2.47  21.4  2.55  26.4 0.356 482831 0.306 2.67e5
## #  with 52,572 more rows, and 4 more variables: sst <dbl>, sal <dbl>,
## #   xmonth <int>, nao <dbl>
…
## # A tibble: 1 x 16
##      lp length cfin1 cfin2 chel1 chel2 lcop1 lcop2  fbar  recr  cumf totaln
##   <int>  <int> <int> <int> <int> <int> <int> <int> <int> <int> <int>  <int>
## 1     0      0  1581  1536  1555  1556  1653  1591     0     0     0      0
## #  with 4 more variables: sst <int>, sal <int>, xmonth <int>, nao <int>

Jak zaobserwowano wartoci brakujce wystpuj w kolumnach cfin1, cfin2, chel1, chel2, lcop1, lcop2, sst.

Dla wartoci okrelajcych dostpno planktonu, jak i dla temperatury powierzchni wody zastpiono brakujce wartoci wartociami poprzedzajcymi dla poszczeglnych atrybutw, ze wzgldu na znaczenie kolejnoci danych.

data <- fill(data, "cfin1", "cfin2", "chel1", "chel2", "lcop1", "lcop2", "sst", .direction="downup")

data

## # A tibble: 52,582 x 16
##       lp length  cfin1 cfin2 chel1 chel2 lcop1 lcop2  fbar   recr  cumf totaln
##    <dbl>  <dbl>  <dbl> <dbl> <dbl> <dbl> <dbl> <dbl> <dbl>  <int> <dbl>  <dbl>
##  1     0   23   0.0278 0.278  2.47  21.4  2.55  26.4 0.356 482831 0.306 2.67e5
##  2     1   22.5 0.0278 0.278  2.47  21.4  2.55  26.4 0.356 482831 0.306 2.67e5
##  3     2   25   0.0278 0.278  2.47  21.4  2.55  26.4 0.356 482831 0.306 2.67e5
##  4     3   25.5 0.0278 0.278  2.47  21.4  2.55  26.4 0.356 482831 0.306 2.67e5
##  5     4   24   0.0278 0.278  2.47  21.4  2.55  26.4 0.356 482831 0.306 2.67e5
##  6     5   22   0.0278 0.278  2.47  21.4  2.55  26.4 0.356 482831 0.306 2.67e5
##  7     6   24   0.0278 0.278  2.47  21.4  2.55  26.4 0.356 482831 0.306 2.67e5
##  8     7   23.5 0.0278 0.278  2.47  21.4  2.55  26.4 0.356 482831 0.306 2.67e5
##  9     8   22.5 0.0278 0.278  2.47  21.4  2.55  26.4 0.356 482831 0.306 2.67e5
## 10     9   22.5 0.0278 0.278  2.47  21.4  2.55  26.4 0.356 482831 0.306 2.67e5
## #  with 52,572 more rows, and 4 more variables: sst <dbl>, sal <dbl>,
## #   xmonth <int>, nao <dbl>
…
